{"src_folders": ["tests/E2E"],
    "page_objects_path": ["tests/E2E"],
    "output_folder": "reports",
    "selenium": {
      "start_process": false,
      "host" : "selenium-chrome_1",
      "port" : 4444,
      "cli_args" : {
        "webdriver.chrome.profile" : ""
      }},
    "test_settings": {
      "default": {
        "globals": {
          "waitForConditionTimeout": 15000
        },
        "silent" : true,
        "selenium_port": 4444,
        "selenium_host": "selenium-chrome_1",
        "screenshots": {
          "enabled": false,
          "path": ""
        },
          "desiredCapabilities": {
            "browserName": "chrome",
            "chromeOptions": {
              "w3c": false 
            }
             
            }
        }
        }}